<?xml version="1.0" encoding="utf-8"?>
<!-- Generator: Adobe Illustrator 16.0.0, SVG Export Plug-In . SVG Version: 6.00 Build 0)  -->
<!DOCTYPE svg PUBLIC "-//W3C//DTD SVG 1.1//EN" "http://www.w3.org/Graphics/SVG/1.1/DTD/svg11.dtd">
<svg version="1.1" id="Layer_1" xmlns="http://www.w3.org/2000/svg" xmlns:xlink="http://www.w3.org/1999/xlink" x="0px" y="0px"
	 width="90.461px" height="58.18px" viewBox="0 0 90.461 58.18" enable-background="new 0 0 90.461 58.18" xml:space="preserve">
<g>
	<defs>
		<rect id="SVGID_1_" x="0.135" y="0.217" width="90.326" height="57.963"/>
	</defs>
	<clipPath id="SVGID_2_">
		<use xlink:href="#SVGID_1_"  overflow="visible"/>
	</clipPath>
	<path clip-path="url(#SVGID_2_)" fill="#EC1940" d="M53.221,11.537c0.405,0.657,0.504,1.565,0.102,2.221
		c-0.756,1.362-2.471,1.664-3.887,1.565c-1.009-0.102-2.017-0.455-2.623-1.313c-0.504-0.706-0.4-1.868,0.051-2.523
		c0.858-1.111,2.121-1.515,3.635-1.363C51.507,10.375,52.566,10.627,53.221,11.537"/>
	<path clip-path="url(#SVGID_2_)" fill="#EC1940" d="M78.201,20.014c-1.109,0.404-1.867,1.262-2.423,2.271
		c-0.606,1.866-1.665,3.885-0.909,5.954c0.353,0.554,1.01,0.807,1.664,0.757c1.264-0.303,2.221-1.413,2.627-2.473
		c0.452-1.816,1.717-3.632,1.006-5.65C79.763,20.266,79.058,19.864,78.201,20.014 M33.897,19.559
		c-1.465,1.111-1.97,2.929-2.526,4.592c1.313,0.254,2.624-0.05,3.684-0.656c1.112-0.856,1.718-2.169,1.464-3.481
		C36.114,18.954,34.702,19.257,33.897,19.559 M40.757,19.913c0.507,1.16,0.05,2.523-0.556,3.481
		c-2.119,2.474-5.801,2.928-9.183,2.625c-0.15,0.706,0,1.413,0.456,1.917c1.615,1.313,4.086,0.908,6.005,0.456
		c1.968-0.507,3.886-1.314,5.599-2.475l2.321-7.972c2.019-0.101,4.243-0.05,6.361-0.05c-0.812,2.978-1.666,6.006-2.474,8.981
		c0,0.404,0.051,0.758,0.25,1.06c0.909,0.857,2.17,0.151,3.028-0.251c0.556-0.304,1.11-0.657,1.565-1.111
		c-0.203-3.331,2.017-6.054,4.642-7.62c2.524-1.462,6.511-1.968,9.083-0.303c-0.148,0.908-0.454,1.768-0.706,2.625
		c-0.91-0.808-2.119-1.616-3.381-1.059c-1.915,0.856-2.522,2.977-2.876,4.894c-0.203,1.211-0.254,2.774,0.91,3.431
		c2.373,0.959,4.539-0.708,6.203-2.169c0.053-3.635,2.525-6.509,5.652-8.023c2.069-0.858,4.896-1.312,6.864,0.1
		c0.354,0.301,0.655,0.657,0.906,1.01l0.457-1.412c1.917-0.052,3.885,0,5.702,0.05l-2.577,9.132
		c-0.048,0.404,0.104,0.706,0.302,1.009c1.063,0.807,2.372,0.05,3.333-0.453c0.25,0.606,0.454,1.26,0.503,1.916
		c-2.268,1.514-5.445,3.28-8.427,1.869c-0.603-0.404-1.263-1.061-1.511-1.767c-1.969,1.866-4.746,2.723-7.369,1.866
		c-1.361-0.604-2.573-1.563-3.28-3.028c-2.269,1.917-4.896,3.382-8.022,3.282l-0.052,0.048c-2.271-0.2-4.54-1.211-5.6-3.179
		c-2.575,2.07-5.651,3.482-9.084,2.979c-1.312-0.305-2.673-1.564-2.876-2.979c0.052-0.049-0.051-0.101-0.099-0.151
		c-4.491,2.372-10.699,4.745-15.694,1.818c-1.513-1.01-2.676-2.575-2.727-4.492c0-3.329,2.576-6.457,5.503-7.569
		c3.077-1.161,7.72-1.665,10.343,0.708L40.757,19.913z"/>
	<path clip-path="url(#SVGID_2_)" fill="#EC1940" d="M9.927,32.276c-1.968-0.556-4.29-1.664-6.308-0.605
		c-0.4,0.253-0.654,0.655-0.707,1.161c0,0.555,0.555,0.958,0.959,1.211c2.322,0.958,4.845-0.151,6.41-1.616L9.927,32.276
		 M30.01,2.958c-1.412,0.102-2.419,1.363-3.079,2.423c-1.713,3.329-2.571,6.964-3.428,10.648c3.683-0.959,7.063-3.633,8.475-7.319
		c0.656-1.563,1.06-3.936-0.301-5.245C31.222,2.958,30.617,3.007,30.01,2.958 M34.752,3.11c1.263,2.573,0.151,5.551-0.957,7.822
		c-2.321,3.985-6.309,6.76-10.9,7.467c-1.412,4.441-2.373,9.033-4.994,12.867c7.969,2.475,16.147,4.29,24.826,4.896
		c10.446,0.758,20.99,0.455,31.538-0.202c5.348-0.504,10.594-1.464,15.691-2.623l0.506,1.967l-0.201,0.152
		c-12.667,3.279-26.087,5.348-39.715,5.4v-0.053c-9.385,0.303-18.164-1.716-26.69-3.986c-2.778-0.808-5.453-1.766-8.179-2.724
		c-3.531,2.574-8.728,4.035-13.016,1.966C1.3,35.354,0.289,34.194,0.14,32.63c-0.055-1.163,0.502-2.17,1.463-2.876
		c3.028-1.869,7.166-0.809,10.345-0.052c0.603-0.453,0.654-1.312,1.006-1.917c1.113-2.928,2.172-5.955,2.878-9.135
		c-1.818-0.1-3.432-0.654-5.047-1.21c0.103-0.605,0.353-1.21,0.655-1.766c1.514,0.354,3.179,0.858,4.897,0.807
		c1.615-5.399,2.471-11.755,8.122-14.734c2.426-1.565,6.006-2.219,8.579-0.556C33.745,1.798,34.35,2.301,34.752,3.11"/>
	<path clip-path="url(#SVGID_2_)" fill="#EC1940" d="M16.315,48.032c0.224-0.989,0.248-1.857-0.926-1.857
		c-1.383,0-1.78,1.872-2.219,3.934c-0.704,3.313-0.505,3.902,0.757,3.902c0.369,0,0.784-0.09,1.145-0.207l0.498-2.353h-1.2
		l0.342-1.62h3.417l-1.141,5.365c-0.624,0.119-2.181,0.354-3.064,0.354c-3.729,0-3.826-1.539-2.972-5.558
		c0.571-2.684,1.28-5.404,4.905-5.404c2.171,0,3.261,1.219,2.654,3.444H16.315"/>
	<path clip-path="url(#SVGID_2_)" fill="#EC1940" d="M25.366,51.993c0.575-2.373,0.651-4.179-2.129-4.179
		c-2.723,0-3.385,1.732-3.814,3.752c-0.492,2.316-0.488,3.949,2.178,3.949c0.962,0,1.753-0.265,2.33-0.721
		c0.597-0.458,1-1.115,1.202-1.923h-2.095c-0.13,0.613-0.425,1.318-1.157,1.318c-0.904,0-0.652-1.318-0.468-2.197H25.366
		 M21.66,50.831c0.135-0.629,0.355-1.74,1.306-1.74c0.977,0,0.733,1.023,0.58,1.74H21.66z"/>
	<path clip-path="url(#SVGID_2_)" fill="#EC1940" d="M28.943,55.514c2.663,0,3.361-1.631,3.849-3.944
		c0.432-2.021,0.509-3.753-2.214-3.753c-2.724,0-3.383,1.731-3.812,3.753C26.271,53.883,26.278,55.514,28.943,55.514 M29.224,54.19
		c-0.761,0-0.848-0.482-0.37-2.737c0.328-1.537,0.565-2.313,1.443-2.313c0.877,0,0.783,0.776,0.459,2.313
		C30.276,53.708,29.984,54.19,29.224,54.19"/>
	<path clip-path="url(#SVGID_2_)" fill="#EC1940" d="M35.587,52.993c-0.085,0.338-0.14,0.66-0.085,0.895
		c0.064,0.233,0.259,0.35,0.67,0.35c0.408,0,0.815-0.262,0.921-0.761c0.335-1.572-3.377-1.22-2.878-3.575
		c0.342-1.602,2.031-2.085,3.362-2.085c1.405,0,2.542,0.674,2.084,2.274h-2.029c0.109-0.515,0.118-0.82-0.002-0.953
		c-0.104-0.133-0.273-0.161-0.488-0.161c-0.453,0-0.764,0.294-0.87,0.792c-0.249,1.175,3.403,1.117,2.896,3.488
		c-0.274,1.291-1.538,2.26-3.254,2.26c-1.804,0-2.912-0.455-2.355-2.523H35.587"/>
	<polygon clip-path="url(#SVGID_2_)" fill="#EC1940" points="41.293,55.434 40.869,47.961 42.926,47.961 42.875,53.173 
		42.903,53.173 45.128,47.961 47.126,47.961 42.089,58.18 39.916,58.18 	"/>
	<path clip-path="url(#SVGID_2_)" fill="#EC1940" d="M48.627,52.993c-0.086,0.338-0.141,0.66-0.088,0.895
		c0.065,0.233,0.26,0.35,0.672,0.35c0.408,0,0.816-0.262,0.923-0.761c0.334-1.572-3.382-1.22-2.88-3.575
		c0.341-1.602,2.033-2.085,3.361-2.085c1.406,0,2.543,0.674,2.084,2.274h-2.028c0.108-0.515,0.118-0.82-0.005-0.953
		c-0.102-0.133-0.271-0.161-0.483-0.161c-0.456,0-0.767,0.294-0.872,0.792c-0.249,1.175,3.401,1.117,2.896,3.488
		c-0.275,1.291-1.541,2.26-3.252,2.26c-1.808,0-2.916-0.455-2.358-2.523H48.627"/>
	<path clip-path="url(#SVGID_2_)" fill="#EC1940" d="M53.758,47.961h0.834l0.252-1.174l2.26-0.927l-0.443,2.101h1.069l-0.272,1.278
		h-1.07l-0.84,3.946c-0.117,0.557-0.209,0.922,0.464,0.922c0.133,0,0.265,0,0.376-0.031l-0.272,1.282
		c-0.288,0.029-0.589,0.073-1.086,0.073c-1.786,0-1.771-1.192-1.673-1.646l0.967-4.546h-0.838L53.758,47.961"/>
	<path clip-path="url(#SVGID_2_)" fill="#EC1940" d="M63.684,51.993c0.578-2.373,0.657-4.179-2.124-4.179
		c-2.724,0-3.386,1.732-3.813,3.752c-0.492,2.316-0.489,3.949,2.176,3.949c0.963,0,1.752-0.265,2.332-0.721
		c0.596-0.458,1-1.115,1.201-1.923H61.36c-0.13,0.613-0.428,1.318-1.155,1.318c-0.91,0-0.655-1.318-0.471-2.197H63.684
		 M59.981,50.831c0.134-0.629,0.354-1.74,1.306-1.74c0.979,0,0.732,1.023,0.582,1.74H59.981z"/>
	<path clip-path="url(#SVGID_2_)" fill="#EC1940" d="M67.758,48.71h0.029c0.555-0.661,1.162-0.896,1.94-0.896
		c0.735,0,1.247,0.352,1.46,0.94c0.625-0.647,1.275-0.94,2.125-0.94c0.982,0,1.723,0.587,1.501,1.613l-1.26,5.94h-2.062l1.08-5.104
		c0.143-0.658,0.135-1.175-0.529-1.175c-0.662,0-0.889,0.517-1.026,1.175l-1.085,5.104h-2.032l1.086-5.104
		c0.142-0.658,0.134-1.172-0.528-1.172c-0.664,0-0.89,0.514-1.031,1.172l-1.081,5.104h-2.065l1.575-7.407h2.063L67.758,48.71"/>
	<path clip-path="url(#SVGID_2_)" fill="#EC1940" d="M77.17,52.993c-0.089,0.338-0.14,0.66-0.089,0.895
		c0.067,0.233,0.261,0.35,0.67,0.35c0.41,0,0.816-0.262,0.925-0.761c0.332-1.572-3.377-1.22-2.879-3.575
		c0.342-1.602,2.029-2.085,3.362-2.085c1.403,0,2.541,0.674,2.084,2.274h-2.026c0.106-0.515,0.116-0.82-0.007-0.953
		c-0.104-0.133-0.272-0.161-0.485-0.161c-0.451,0-0.765,0.294-0.869,0.792c-0.252,1.175,3.402,1.117,2.898,3.488
		c-0.279,1.291-1.544,2.26-3.259,2.26c-1.805,0-2.912-0.455-2.356-2.523H77.17"/>
</g>
</svg>
