<?xml version="1.0" encoding="utf-8"?>
<!-- Generator: Adobe Illustrator 16.0.0, SVG Export Plug-In . SVG Version: 6.00 Build 0)  -->
<!DOCTYPE svg PUBLIC "-//W3C//DTD SVG 1.1//EN" "http://www.w3.org/Graphics/SVG/1.1/DTD/svg11.dtd">
<svg version="1.1" id="Layer_1" xmlns="http://www.w3.org/2000/svg" xmlns:xlink="http://www.w3.org/1999/xlink" x="0px" y="0px"
	 width="252.888px" height="67.5px" viewBox="0 0 252.888 67.5" enable-background="new 0 0 252.888 67.5" xml:space="preserve">
<g>
	<path fill="none" stroke="#FFFFFF" stroke-width="1.586" d="M57.054,15.227c0,5.745-4.662,10.386-10.385,10.386
		c-5.745,0-10.386-4.641-10.386-10.386c0-5.724,4.641-10.385,10.386-10.385C52.392,4.842,57.054,9.503,57.054,15.227z"/>
	<path fill="none" stroke="#FFFFFF" stroke-width="1.586" d="M60.383,15.232c0,7.585-6.154,13.71-13.71,13.71
		c-7.585,0-13.71-6.125-13.71-13.71c0-7.557,6.125-13.71,13.71-13.71C54.229,1.522,60.383,7.676,60.383,15.232z"/>
	<path fill="none" stroke="#FFFFFF" stroke-width="1.586" d="M25.47,33.978c0,5.746-4.661,10.386-10.385,10.386
		C9.34,44.363,4.7,39.724,4.7,33.978c0-5.723,4.64-10.384,10.385-10.384C20.809,23.594,25.47,28.255,25.47,33.978z"/>
	<path fill="none" stroke="#FFFFFF" stroke-width="1.586" d="M28.788,33.985c0,7.585-6.154,13.71-13.71,13.71
		c-7.585,0-13.711-6.125-13.711-13.71c0-7.557,6.126-13.71,13.711-13.71C22.634,20.275,28.788,26.429,28.788,33.985z"/>
	<path fill="none" stroke="#FFFFFF" stroke-width="1.586" d="M57.071,52.546c0,5.745-4.661,10.385-10.385,10.385
		c-5.745,0-10.385-4.64-10.385-10.385c0-5.723,4.64-10.385,10.385-10.385C52.41,42.161,57.071,46.823,57.071,52.546z"/>
	<path fill="none" stroke="#FFFFFF" stroke-width="1.586" d="M60.376,52.553c0,7.586-6.153,13.711-13.71,13.711
		c-7.585,0-13.71-6.125-13.71-13.711c0-7.557,6.125-13.71,13.71-13.71C54.223,38.843,60.376,44.996,60.376,52.553z"/>
	<line fill="none" stroke="#FFFFFF" stroke-width="1.85" x1="46.666" y1="52.543" x2="15.078" y2="33.883"/>
	<line fill="none" stroke="#FFFFFF" stroke-width="1.85" x1="15.077" y1="33.883" x2="46.665" y2="15.223"/>
	<line fill="none" stroke="#FFFFFF" stroke-width="1.85" x1="46.666" y1="15.223" x2="46.666" y2="52.445"/>
	<g>
		<defs>
			<rect id="SVGID_1_" x="7.973" y="26.857" width="14.229" height="14.229"/>
		</defs>
		<clipPath id="SVGID_2_">
			<use xlink:href="#SVGID_1_"  overflow="visible"/>
		</clipPath>
		<g clip-path="url(#SVGID_2_)">
			<defs>
				<rect id="SVGID_3_" x="7.973" y="26.857" width="14.229" height="14.229"/>
			</defs>
			<clipPath id="SVGID_4_">
				<use xlink:href="#SVGID_3_"  overflow="visible"/>
			</clipPath>
			<path clip-path="url(#SVGID_4_)" fill="#FFFFFF" d="M15.087,26.857c3.921,0,7.114,3.193,7.114,7.114
				c0,3.935-3.193,7.114-7.114,7.114c-3.936,0-7.113-3.18-7.113-7.114C7.974,30.051,11.151,26.857,15.087,26.857"/>
		</g>
	</g>
	<g>
		<defs>
			<rect id="SVGID_5_" x="39.558" y="8.108" width="14.229" height="14.229"/>
		</defs>
		<clipPath id="SVGID_6_">
			<use xlink:href="#SVGID_5_"  overflow="visible"/>
		</clipPath>
		<g clip-path="url(#SVGID_6_)">
			<defs>
				<rect id="SVGID_7_" x="39.558" y="8.108" width="14.229" height="14.229"/>
			</defs>
			<clipPath id="SVGID_8_">
				<use xlink:href="#SVGID_7_"  overflow="visible"/>
			</clipPath>
			<path clip-path="url(#SVGID_8_)" fill="#FFFFFF" d="M46.672,8.109c3.921,0,7.113,3.193,7.113,7.114
				c0,3.935-3.192,7.113-7.113,7.113c-3.937,0-7.114-3.179-7.114-7.113C39.558,11.303,42.735,8.109,46.672,8.109"/>
		</g>
	</g>
	<g>
		<defs>
			<rect id="SVGID_9_" x="39.571" y="45.426" width="14.228" height="14.227"/>
		</defs>
		<clipPath id="SVGID_10_">
			<use xlink:href="#SVGID_9_"  overflow="visible"/>
		</clipPath>
		<g clip-path="url(#SVGID_10_)">
			<defs>
				<rect id="SVGID_11_" x="39.571" y="45.426" width="14.228" height="14.227"/>
			</defs>
			<clipPath id="SVGID_12_">
				<use xlink:href="#SVGID_11_"  overflow="visible"/>
			</clipPath>
			<path clip-path="url(#SVGID_12_)" fill="#FFFFFF" d="M46.686,45.426c3.92,0,7.114,3.193,7.114,7.114
				c0,3.935-3.194,7.113-7.114,7.113c-3.937,0-7.114-3.179-7.114-7.113C39.571,48.619,42.749,45.426,46.686,45.426"/>
		</g>
	</g>
	<path fill="#FFFFFF" d="M71.036,31.913V27.65c3.324,0.735,5.95,1.104,7.878,1.104c1.522,0,2.83-0.254,3.92-0.761
		c1.447-0.66,2.17-1.649,2.17-2.969c0-1.143-0.736-2.042-2.208-2.702c-0.329-0.153-1.954-0.66-4.871-1.523
		c-2.208-0.659-3.832-1.421-4.872-2.283c-1.472-1.242-2.207-2.918-2.207-5.023c0-5.455,3.704-8.185,11.113-8.185
		c2.309,0,4.593,0.255,6.851,0.763v4.109c-2.055-0.48-4.162-0.723-6.317-0.723c-1.446,0-2.69,0.216-3.73,0.646
		c-1.446,0.584-2.169,1.497-2.169,2.74c0,1.271,0.748,2.234,2.245,2.894c0.381,0.152,2.017,0.608,4.91,1.37
		c2.207,0.584,3.831,1.307,4.872,2.17c1.497,1.242,2.246,2.994,2.246,5.252c0,2.867-1.257,5.037-3.769,6.509
		c-2.082,1.217-4.644,1.826-7.688,1.826C76.465,32.864,73.674,32.547,71.036,31.913"/>
	<path fill="#FFFFFF" d="M119.41,32.407V19.391c0-1.953-0.952-2.93-2.854-2.93c-1.523,0-2.83,0.254-3.921,0.761v15.186h-5.405
		V19.391c0-1.953-0.951-2.93-2.854-2.93c-1.116,0-2.271,0.228-3.464,0.685l-0.151,0.076v15.186h-5.405V12.426h4.872v1.789
		c2.688-1.396,4.783-2.093,6.28-2.093c2.056,0,3.641,0.685,4.758,2.055c2.969-1.396,5.303-2.093,7.003-2.093
		c1.775,0,3.234,0.431,4.377,1.294c1.446,1.116,2.17,2.777,2.17,4.985v14.044H119.41z"/>
	<path fill="#FFFFFF" d="M147.461,32.332c-2.817,0.329-5.887,0.495-9.211,0.495c-2.868,0-5.011-0.381-6.432-1.143
		c-1.854-1.015-2.779-2.791-2.779-5.329c0-2.612,1.332-4.351,3.996-5.214c1.726-0.558,4.731-0.837,9.021-0.837
		c0-1.775-0.216-2.918-0.646-3.426c-0.609-0.736-2.043-1.104-4.301-1.104c-2.31,0-4.555,0.241-6.737,0.723V12.73
		c2.132-0.482,4.478-0.724,7.042-0.724c3.095,0,5.366,0.343,6.812,1.028c2.157,0.989,3.236,2.868,3.236,5.633V32.332z
		 M142.056,23.768c-0.457-0.024-1.498-0.037-3.121-0.037c-1.396,0-2.385,0.14-2.969,0.418c-0.837,0.406-1.256,1.205-1.256,2.397
		c0,1.193,0.419,1.993,1.256,2.398c0.584,0.279,1.573,0.419,2.969,0.419c1.016,0,2.057-0.076,3.121-0.229V23.768z"/>
	<path fill="#FFFFFF" d="M165.882,16.688c-3.553,0-5.951,0.432-7.194,1.294v14.425h-5.404V12.426h4.796v1.826
		c2.207-1.318,4.567-1.979,7.079-1.979h0.724V16.688z"/>
	<path fill="#FFFFFF" d="M176.614,16.308v10.354c0,1.269,0.672,1.902,2.018,1.902h3.653v3.845h-4.339
		c-2.232,0-3.755-0.229-4.566-0.686c-1.32-0.735-1.979-2.309-1.979-4.72V16.308h-4.035v-3.882h4.035V7.173l5.214-1.75v7.003h6.09
		v3.882H176.614z"/>
	<polygon fill="#FFFFFF" points="191.99,11.816 191.495,11.816 191.495,32.408 186.853,32.408 186.853,5.766 194.351,5.766 
		204.97,26.166 205.465,26.166 205.465,5.766 210.107,5.766 210.107,32.408 202.647,32.408 	"/>
	<path fill="#FFFFFF" d="M215.207,22.627c0-3.324,0.85-5.912,2.55-7.766c1.751-1.902,4.301-2.854,7.651-2.854
		c3.526,0,6.063,0.926,7.612,2.778c1.471,1.775,2.207,4.593,2.207,8.449v0.686h-14.312c0.28,3.603,2.614,5.403,7.004,5.403
		c1.547,0,3.463-0.228,5.747-0.685v3.426c-2.843,0.532-5.202,0.798-7.079,0.798C219,32.863,215.207,29.452,215.207,22.627
		 M229.366,20.57c0-3.399-1.408-5.1-4.226-5.1c-2.816,0-4.225,1.7-4.225,5.1H229.366z"/>
	<path fill="#FFFFFF" d="M246.798,16.308v10.354c0,1.269,0.672,1.902,2.017,1.902h3.654v3.845h-4.339
		c-2.233,0-3.755-0.229-4.567-0.686c-1.32-0.735-1.979-2.309-1.979-4.72V16.308h-4.035v-3.882h4.035V7.173l5.214-1.75v7.003h6.09
		v3.882H246.798z"/>
	<polygon fill="#FFFFFF" points="74.192,39.365 73.865,39.365 73.865,52.992 70.792,52.992 70.792,35.36 75.754,35.36 
		82.781,48.861 83.109,48.861 83.109,35.36 86.183,35.36 86.183,52.992 81.245,52.992 	"/>
	<path fill="#FFFFFF" d="M101.647,51.355c-1.309,1.276-2.989,1.915-5.037,1.915c-2.201,0-3.939-0.639-5.215-1.915
		c-1.225-1.242-1.838-2.905-1.838-4.987c0-2.116,0.621-3.795,1.863-5.038c1.242-1.242,2.973-1.864,5.189-1.864
		c2.182,0,3.896,0.622,5.138,1.864c1.243,1.243,1.864,2.922,1.864,5.038C103.612,48.417,102.957,50.079,101.647,51.355
		 M99.18,43.093c-0.521-0.755-1.387-1.133-2.596-1.133s-2.073,0.378-2.594,1.133c-0.487,0.689-0.729,1.798-0.729,3.325
		c0,1.511,0.242,2.612,0.729,3.3c0.521,0.757,1.385,1.134,2.594,1.134s2.074-0.377,2.596-1.134c0.47-0.688,0.705-1.789,0.705-3.3
		C99.885,44.891,99.649,43.782,99.18,43.093"/>
	<path fill="#FFFFFF" d="M115.174,42.59c-2.352,0-3.938,0.286-4.761,0.855v9.548h-3.576V39.769h3.173v1.209
		c1.461-0.873,3.023-1.31,4.686-1.31h0.479V42.59z"/>
	<path fill="#FFFFFF" d="M122.277,42.338v6.852c0,0.839,0.444,1.26,1.335,1.26h2.418v2.544h-2.872c-1.478,0-2.485-0.151-3.022-0.453
		c-0.874-0.487-1.31-1.529-1.31-3.124v-7.078h-2.67v-2.569h2.67v-3.476l3.451-1.159v4.635h4.03v2.569H122.277z"/>
	<path fill="#FFFFFF" d="M137.768,52.992v-8.463c0-1.394-0.621-2.091-1.863-2.091c-1.125,0-2.268,0.252-3.427,0.756v9.798h-3.576
		V34.101h3.576v6.701c1.948-0.84,3.443-1.26,4.484-1.26c1.192,0,2.175,0.285,2.947,0.856c0.958,0.739,1.436,1.839,1.436,3.3v9.294
		H137.768z"/>
	<path fill="#FFFFFF" d="M164.921,52.993l-1.359-4.031h-7.13l-1.335,4.031h-3.929l6.574-17.634h4.862l6.297,17.634H164.921z
		 M160.261,38.357h-0.454l-2.544,8.087h5.468L160.261,38.357z"/>
	<path fill="#FFFFFF" d="M186.785,52.992v-8.614c0-1.293-0.63-1.939-1.89-1.939c-1.008,0-1.873,0.168-2.595,0.504v10.05h-3.577
		v-8.614c0-1.293-0.629-1.939-1.889-1.939c-0.739,0-1.503,0.151-2.292,0.453l-0.101,0.051v10.05h-3.576V39.769h3.224v1.184
		c1.779-0.924,3.165-1.386,4.156-1.386c1.36,0,2.409,0.454,3.147,1.361c1.966-0.924,3.511-1.386,4.636-1.386
		c1.175,0,2.141,0.285,2.896,0.856c0.957,0.739,1.437,1.839,1.437,3.3v9.294H186.785z"/>
	<path fill="#FFFFFF" d="M193.509,46.52c0-2.2,0.563-3.913,1.688-5.139c1.159-1.26,2.847-1.889,5.063-1.889
		c2.334,0,4.015,0.612,5.038,1.838c0.975,1.176,1.461,3.039,1.461,5.592v0.453h-9.471c0.186,2.385,1.729,3.577,4.634,3.577
		c1.025,0,2.293-0.151,3.805-0.453v2.267c-1.882,0.353-3.442,0.529-4.686,0.529C196.021,53.295,193.509,51.036,193.509,46.52
		 M202.88,45.159c0-2.25-0.932-3.375-2.796-3.375s-2.796,1.125-2.796,3.375H202.88z"/>
	<path fill="#FFFFFF" d="M217.993,42.59c-2.352,0-3.938,0.286-4.762,0.855v9.548h-3.575V39.769h3.173v1.209
		c1.461-0.873,3.022-1.31,4.685-1.31h0.479V42.59z"/>
	<path fill="#FFFFFF" d="M220.336,34.252h3.577v3.35h-3.577V34.252z M220.336,39.769h3.577v13.225h-3.577V39.769z"/>
	<path fill="#FFFFFF" d="M238.446,52.842c-1.125,0.285-2.385,0.428-3.778,0.428c-2.267,0-4.073-0.596-5.416-1.788
		c-1.41-1.26-2.116-3.039-2.116-5.34c0-2.065,0.73-3.712,2.191-4.938c1.361-1.142,3.09-1.712,5.188-1.712
		c1.429,0,2.704,0.125,3.829,0.377v2.368c-0.99-0.117-1.805-0.177-2.442-0.177c-1.73,0-2.981,0.312-3.753,0.933
		c-0.841,0.654-1.261,1.763-1.261,3.324c0,1.579,0.42,2.704,1.261,3.375c0.771,0.64,2.022,0.958,3.753,0.958
		c0.839,0,1.688-0.067,2.544-0.201V52.842z"/>
	<path fill="#FFFFFF" d="M252.3,52.941c-1.865,0.219-3.896,0.328-6.096,0.328c-1.898,0-3.317-0.252-4.257-0.756
		c-1.227-0.671-1.839-1.847-1.839-3.525c0-1.73,0.882-2.881,2.645-3.451c1.142-0.369,3.132-0.555,5.97-0.555
		c0-1.176-0.143-1.931-0.428-2.267c-0.404-0.487-1.352-0.731-2.847-0.731c-1.528,0-3.015,0.16-4.458,0.479V39.97
		c1.411-0.319,2.963-0.478,4.659-0.478c2.049,0,3.553,0.226,4.51,0.679c1.426,0.656,2.141,1.897,2.141,3.729V52.941z
		 M248.723,47.274c-0.302-0.017-0.991-0.024-2.064-0.024c-0.924,0-1.58,0.092-1.965,0.277c-0.555,0.269-0.831,0.798-0.831,1.587
		s0.276,1.317,0.831,1.587c0.385,0.184,1.041,0.276,1.965,0.276c0.67,0,1.358-0.051,2.064-0.15V47.274z"/>
	<path fill="#FFFFFF" d="M74.787,63.089l-0.395-1.171H72.32l-0.388,1.171H70.79l1.911-5.125h1.413l1.83,5.125H74.787z
		 M73.434,58.835h-0.132l-0.739,2.35h1.589L73.434,58.835z"/>
	<path fill="#FFFFFF" d="M79.063,63.089v-2.504c0-0.376-0.183-0.564-0.549-0.564c-0.327,0-0.646,0.073-0.959,0.221v2.848h-1.04
		v-3.844h0.938v0.344c0.586-0.269,1.075-0.402,1.472-0.402c0.317,0,0.583,0.09,0.798,0.271c0.254,0.214,0.381,0.523,0.381,0.929
		v2.702H79.063z"/>
	<polygon fill="#FFFFFF" points="82.717,64.699 81.765,64.699 82.497,63.089 82.124,63.089 80.711,59.245 81.845,59.245 
		82.731,62.254 82.798,62.254 83.691,59.245 84.729,59.245 	"/>
	<path fill="#FFFFFF" d="M89.138,59.099c-0.327,0.298-0.491,0.774-0.491,1.428c0,0.654,0.164,1.13,0.491,1.427
		c0.308,0.278,0.791,0.417,1.45,0.417c0.215,0,0.546-0.025,0.995-0.079v0.769c-0.352,0.078-0.788,0.117-1.311,0.117
		c-0.816,0-1.469-0.212-1.962-0.638c-0.542-0.469-0.813-1.14-0.813-2.013c0-0.874,0.271-1.545,0.813-2.014
		c0.493-0.424,1.146-0.637,1.962-0.637c0.483,0,0.92,0.038,1.311,0.117v0.77c-0.41-0.054-0.742-0.081-0.995-0.081
		C89.929,58.682,89.445,58.82,89.138,59.099"/>
	<path fill="#FFFFFF" d="M95.573,62.612c-0.381,0.371-0.869,0.557-1.465,0.557c-0.639,0-1.145-0.186-1.516-0.557
		c-0.356-0.361-0.534-0.844-0.534-1.449c0-0.614,0.181-1.103,0.542-1.465c0.36-0.361,0.863-0.541,1.508-0.541
		c0.635,0,1.133,0.18,1.494,0.541c0.36,0.362,0.542,0.851,0.542,1.465C96.145,61.759,95.954,62.241,95.573,62.612 M94.855,60.211
		c-0.151-0.22-0.402-0.329-0.754-0.329s-0.604,0.109-0.754,0.329c-0.142,0.2-0.212,0.522-0.212,0.967c0,0.439,0.07,0.76,0.212,0.96
		c0.15,0.22,0.402,0.329,0.754,0.329s0.603-0.109,0.754-0.329c0.137-0.2,0.205-0.521,0.205-0.96
		C95.061,60.733,94.992,60.411,94.855,60.211"/>
	<path fill="#FFFFFF" d="M99.629,63.089v-2.504c0-0.376-0.183-0.564-0.549-0.564c-0.327,0-0.646,0.073-0.959,0.221v2.848h-1.04
		v-3.844h0.938v0.344c0.586-0.269,1.076-0.402,1.472-0.402c0.317,0,0.583,0.09,0.798,0.271c0.254,0.214,0.381,0.523,0.381,0.929
		v2.702H99.629z"/>
	<path fill="#FFFFFF" d="M104.329,62.817c-0.337,0.229-0.791,0.345-1.361,0.345c-0.459,0-0.931-0.052-1.413-0.154v-0.724
		c0.536,0.122,0.954,0.182,1.252,0.182c0.62,0,0.93-0.153,0.93-0.46c0-0.137-0.062-0.237-0.183-0.301
		c-0.133-0.068-0.42-0.145-0.864-0.228c-0.777-0.146-1.164-0.519-1.164-1.12c0-0.43,0.195-0.747,0.585-0.951
		c0.298-0.156,0.669-0.234,1.113-0.234c0.313,0,0.762,0.037,1.347,0.11v0.688c-0.414-0.083-0.795-0.124-1.142-0.124
		c-0.562,0-0.843,0.139-0.843,0.417c0,0.151,0.11,0.266,0.33,0.344c0.073,0.029,0.275,0.076,0.607,0.14
		c0.874,0.171,1.311,0.542,1.311,1.112C104.834,62.264,104.665,62.584,104.329,62.817"/>
	<path fill="#FFFFFF" d="M107.097,59.991v1.992c0,0.244,0.129,0.365,0.388,0.365h0.703v0.74h-0.835
		c-0.429,0-0.722-0.044-0.878-0.132c-0.254-0.142-0.381-0.444-0.381-0.907v-2.059h-0.776v-0.746h0.776v-1.011l1.003-0.337v1.348
		h1.172v0.746H107.097z"/>
	<path fill="#FFFFFF" d="M108.816,61.207c0-0.639,0.164-1.137,0.491-1.493c0.337-0.366,0.827-0.549,1.471-0.549
		c0.68,0,1.168,0.178,1.466,0.534c0.282,0.342,0.424,0.884,0.424,1.625v0.132h-2.752c0.053,0.693,0.502,1.04,1.347,1.04
		c0.298,0,0.666-0.044,1.105-0.132v0.659c-0.547,0.102-1,0.153-1.362,0.153C109.547,63.177,108.816,62.52,108.816,61.207
		 M111.541,60.812c0-0.653-0.271-0.98-0.813-0.98c-0.541,0-0.812,0.327-0.812,0.98H111.541z"/>
	<rect x="113.51" y="57.598" fill="#FFFFFF" width="1.04" height="5.491"/>
	<rect x="115.692" y="57.598" fill="#FFFFFF" width="1.039" height="5.491"/>
	<path fill="#FFFFFF" d="M121.11,63.073c-0.542,0.064-1.133,0.097-1.772,0.097c-0.552,0-0.964-0.074-1.237-0.221
		c-0.356-0.194-0.534-0.536-0.534-1.024c0-0.503,0.256-0.837,0.769-1.003c0.332-0.107,0.91-0.161,1.735-0.161
		c0-0.342-0.042-0.563-0.125-0.659c-0.117-0.142-0.394-0.212-0.827-0.212c-0.444,0-0.876,0.046-1.296,0.139v-0.725
		c0.41-0.093,0.862-0.139,1.354-0.139c0.597,0,1.033,0.065,1.312,0.197c0.415,0.19,0.623,0.552,0.623,1.083V63.073z M120.07,61.427
		c-0.088-0.005-0.288-0.007-0.602-0.007c-0.268,0-0.458,0.026-0.569,0.08c-0.162,0.078-0.242,0.231-0.242,0.462
		c0,0.229,0.08,0.383,0.242,0.461c0.111,0.053,0.302,0.08,0.569,0.08c0.196,0,0.396-0.015,0.602-0.044V61.427z"/>
	<path fill="#FFFFFF" d="M123.613,59.991v1.992c0,0.244,0.129,0.365,0.389,0.365h0.702v0.74h-0.835
		c-0.429,0-0.722-0.044-0.879-0.132c-0.253-0.142-0.38-0.444-0.38-0.907v-2.059h-0.775v-0.746h0.775v-1.011l1.003-0.337v1.348h1.171
		v0.746H123.613z"/>
	<path fill="#FFFFFF" d="M125.539,57.642h1.04v0.975h-1.04V57.642z M125.539,59.245h1.04v3.844h-1.04V59.245z"/>
	<path fill="#FFFFFF" d="M131.029,62.612c-0.38,0.371-0.868,0.557-1.464,0.557c-0.639,0-1.146-0.186-1.515-0.557
		c-0.357-0.361-0.535-0.844-0.535-1.449c0-0.614,0.181-1.103,0.542-1.465c0.36-0.361,0.863-0.541,1.508-0.541
		c0.635,0,1.132,0.18,1.494,0.541c0.36,0.362,0.542,0.851,0.542,1.465C131.602,61.759,131.41,62.241,131.029,62.612 M130.313,60.211
		c-0.151-0.22-0.402-0.329-0.754-0.329s-0.604,0.109-0.754,0.329c-0.143,0.2-0.213,0.522-0.213,0.967c0,0.439,0.07,0.76,0.213,0.96
		c0.15,0.22,0.402,0.329,0.754,0.329s0.603-0.109,0.754-0.329c0.137-0.2,0.205-0.521,0.205-0.96
		C130.518,60.733,130.449,60.411,130.313,60.211"/>
	<path fill="#FFFFFF" d="M135.086,63.089v-2.504c0-0.376-0.184-0.564-0.549-0.564c-0.327,0-0.647,0.073-0.959,0.221v2.848h-1.04
		v-3.844h0.937v0.344c0.586-0.269,1.077-0.402,1.472-0.402c0.317,0,0.583,0.09,0.799,0.271c0.254,0.214,0.381,0.523,0.381,0.929
		v2.702H135.086z"/>
	<rect x="139.494" y="60.526" fill="#FFFFFF" width="2.248" height="0.739"/>
	<path fill="#FFFFFF" d="M148.557,63.089l-0.396-1.171h-2.071l-0.389,1.171h-1.142l1.911-5.125h1.413l1.83,5.125H148.557z
		 M147.202,58.835h-0.132l-0.74,2.35h1.589L147.202,58.835z"/>
	<path fill="#FFFFFF" d="M152.832,63.089v-2.504c0-0.376-0.183-0.564-0.549-0.564c-0.327,0-0.646,0.073-0.959,0.221v2.848h-1.04
		v-3.844h0.938v0.344c0.585-0.269,1.075-0.402,1.471-0.402c0.317,0,0.583,0.09,0.798,0.271c0.254,0.214,0.381,0.523,0.381,0.929
		v2.702H152.832z"/>
	<polygon fill="#FFFFFF" points="156.485,64.699 155.533,64.699 156.267,63.089 155.893,63.089 154.479,59.245 155.614,59.245 
		156.501,62.254 156.566,62.254 157.46,59.245 158.5,59.245 	"/>
	<path fill="#FFFFFF" d="M164.86,63.089l-0.395-1.171h-2.072l-0.387,1.171h-1.144l1.911-5.125h1.413l1.83,5.125H164.86z
		 M163.507,58.835h-0.132l-0.739,2.35h1.588L163.507,58.835z"/>
	<path fill="#FFFFFF" d="M170.022,62.218c-0.194,0.351-0.468,0.603-0.819,0.754c-0.264,0.107-0.574,0.161-0.931,0.161
		c-0.214,0-0.429-0.015-0.644-0.045v1.611h-1.04V59.23c0.737-0.034,1.196-0.051,1.377-0.051c0.615,0,1.098,0.1,1.45,0.3
		c0.58,0.336,0.871,0.886,0.871,1.646C170.287,61.531,170.198,61.896,170.022,62.218 M168.171,59.896
		c-0.226,0-0.405,0.01-0.542,0.029v2.452c0.146,0.029,0.319,0.044,0.52,0.044c0.718,0,1.076-0.406,1.076-1.223
		C169.225,60.331,168.874,59.896,168.171,59.896"/>
	<path fill="#FFFFFF" d="M174.585,62.218c-0.196,0.351-0.469,0.603-0.821,0.754c-0.263,0.107-0.574,0.161-0.929,0.161
		c-0.215,0-0.431-0.015-0.646-0.045v1.611h-1.04V59.23c0.738-0.034,1.196-0.051,1.377-0.051c0.615,0,1.099,0.1,1.45,0.3
		c0.58,0.336,0.871,0.886,0.871,1.646C174.848,61.531,174.76,61.896,174.585,62.218 M172.731,59.896
		c-0.225,0-0.404,0.01-0.542,0.029v2.452c0.147,0.029,0.32,0.044,0.521,0.044c0.717,0,1.076-0.406,1.076-1.223
		C173.786,60.331,173.435,59.896,172.731,59.896"/>
	<rect x="175.711" y="57.598" fill="#FFFFFF" width="1.04" height="5.491"/>
	<path fill="#FFFFFF" d="M177.893,57.642h1.04v0.975h-1.04V57.642z M177.893,59.245h1.04v3.844h-1.04V59.245z"/>
	<path fill="#FFFFFF" d="M183.157,63.045c-0.327,0.083-0.693,0.125-1.099,0.125c-0.658,0-1.184-0.174-1.573-0.521
		c-0.411-0.364-0.616-0.883-0.616-1.552c0-0.6,0.213-1.078,0.638-1.434c0.396-0.332,0.898-0.498,1.508-0.498
		c0.414,0,0.786,0.036,1.113,0.108v0.688c-0.288-0.034-0.525-0.051-0.711-0.051c-0.502,0-0.866,0.091-1.091,0.271
		c-0.244,0.191-0.365,0.514-0.365,0.967c0,0.459,0.121,0.786,0.365,0.98c0.225,0.187,0.589,0.279,1.091,0.279
		c0.244,0,0.491-0.02,0.74-0.06V63.045z"/>
	<path fill="#FFFFFF" d="M187.185,63.073c-0.542,0.064-1.133,0.097-1.772,0.097c-0.552,0-0.964-0.074-1.237-0.221
		c-0.356-0.194-0.534-0.536-0.534-1.024c0-0.503,0.256-0.837,0.769-1.003c0.331-0.107,0.91-0.161,1.735-0.161
		c0-0.342-0.042-0.563-0.125-0.659c-0.117-0.142-0.394-0.212-0.827-0.212c-0.444,0-0.876,0.046-1.296,0.139v-0.725
		c0.41-0.093,0.86-0.139,1.354-0.139c0.597,0,1.033,0.065,1.312,0.197c0.415,0.19,0.623,0.552,0.623,1.083V63.073z M186.145,61.427
		c-0.088-0.005-0.288-0.007-0.602-0.007c-0.268,0-0.459,0.026-0.569,0.08c-0.162,0.078-0.243,0.231-0.243,0.462
		c0,0.229,0.081,0.383,0.243,0.461c0.11,0.053,0.302,0.08,0.569,0.08c0.196,0,0.396-0.015,0.602-0.044V61.427z"/>
	<path fill="#FFFFFF" d="M189.688,59.991v1.992c0,0.244,0.129,0.365,0.389,0.365h0.702v0.74h-0.835
		c-0.429,0-0.722-0.044-0.878-0.132c-0.254-0.142-0.381-0.444-0.381-0.907v-2.059h-0.776v-0.746h0.776v-1.011l1.003-0.337v1.348
		h1.172v0.746H189.688z"/>
	<path fill="#FFFFFF" d="M191.613,57.642h1.04v0.975h-1.04V57.642z M191.613,59.245h1.04v3.844h-1.04V59.245z"/>
	<path fill="#FFFFFF" d="M197.104,62.612c-0.38,0.371-0.868,0.557-1.464,0.557c-0.639,0-1.145-0.186-1.516-0.557
		c-0.356-0.361-0.534-0.844-0.534-1.449c0-0.614,0.181-1.103,0.542-1.465c0.36-0.361,0.863-0.541,1.508-0.541
		c0.635,0,1.133,0.18,1.494,0.541c0.36,0.362,0.542,0.851,0.542,1.465C197.676,61.759,197.484,62.241,197.104,62.612
		 M196.387,60.211c-0.151-0.22-0.402-0.329-0.754-0.329s-0.604,0.109-0.754,0.329c-0.143,0.2-0.212,0.522-0.212,0.967
		c0,0.439,0.069,0.76,0.212,0.96c0.15,0.22,0.402,0.329,0.754,0.329s0.603-0.109,0.754-0.329c0.137-0.2,0.205-0.521,0.205-0.96
		C196.592,60.733,196.523,60.411,196.387,60.211"/>
	<path fill="#FFFFFF" d="M201.16,63.089v-2.504c0-0.376-0.184-0.564-0.549-0.564c-0.327,0-0.647,0.073-0.959,0.221v2.848h-1.04
		v-3.844h0.938v0.344c0.585-0.269,1.076-0.402,1.471-0.402c0.317,0,0.583,0.09,0.799,0.271c0.254,0.214,0.381,0.523,0.381,0.929
		v2.702H201.16z"/>
	<rect x="205.568" y="60.526" fill="#FFFFFF" width="2.247" height="0.739"/>
	<path fill="#FFFFFF" d="M215.459,62.511c-0.454,0.459-1.074,0.688-1.86,0.688s-1.406-0.229-1.86-0.688
		c-0.468-0.47-0.702-1.13-0.702-1.984c0-0.854,0.234-1.516,0.702-1.984c0.454-0.459,1.074-0.688,1.86-0.688s1.406,0.229,1.86,0.688
		c0.468,0.469,0.702,1.131,0.702,1.984C216.161,61.381,215.927,62.041,215.459,62.511 M214.756,59.208
		c-0.229-0.376-0.618-0.563-1.164-0.563c-0.542,0-0.925,0.188-1.149,0.57c-0.176,0.298-0.264,0.737-0.264,1.317
		c0,0.581,0.088,1.016,0.264,1.304c0.225,0.376,0.607,0.563,1.149,0.563c0.546,0,0.935-0.191,1.164-0.571
		c0.176-0.293,0.264-0.729,0.264-1.31C215.02,59.938,214.932,59.502,214.756,59.208"/>
	<path fill="#FFFFFF" d="M220.569,62.218c-0.196,0.351-0.469,0.603-0.82,0.754c-0.264,0.107-0.574,0.161-0.93,0.161
		c-0.215,0-0.43-0.015-0.646-0.045v1.611h-1.04V59.23c0.738-0.034,1.197-0.051,1.377-0.051c0.615,0,1.1,0.1,1.45,0.3
		c0.581,0.336,0.871,0.886,0.871,1.646C220.832,61.531,220.744,61.896,220.569,62.218 M218.716,59.896
		c-0.225,0-0.404,0.01-0.542,0.029v2.452c0.147,0.029,0.32,0.044,0.521,0.044c0.718,0,1.077-0.406,1.077-1.223
		C219.771,60.331,219.419,59.896,218.716,59.896"/>
	<path fill="#FFFFFF" d="M221.49,61.207c0-0.639,0.164-1.137,0.491-1.493c0.337-0.366,0.827-0.549,1.473-0.549
		c0.678,0,1.166,0.178,1.464,0.534c0.282,0.342,0.424,0.884,0.424,1.625v0.132h-2.752c0.053,0.693,0.502,1.04,1.347,1.04
		c0.298,0,0.666-0.044,1.105-0.132v0.659c-0.547,0.102-1,0.153-1.362,0.153C222.221,63.177,221.49,62.52,221.49,61.207
		 M224.215,60.812c0-0.653-0.271-0.98-0.813-0.98c-0.541,0-0.812,0.327-0.812,0.98H224.215z"/>
	<path fill="#FFFFFF" d="M228.731,63.089v-2.504c0-0.376-0.183-0.564-0.549-0.564c-0.327,0-0.646,0.073-0.959,0.221v2.848h-1.04
		v-3.844h0.938v0.344c0.585-0.269,1.075-0.402,1.471-0.402c0.317,0,0.583,0.09,0.798,0.271c0.254,0.214,0.381,0.523,0.381,0.929
		v2.702H228.731z"/>
	<path fill="#FFFFFF" d="M234.581,59.991v1.992c0,0.244,0.129,0.365,0.389,0.365h0.702v0.74h-0.835
		c-0.429,0-0.722-0.044-0.879-0.132c-0.253-0.142-0.38-0.444-0.38-0.907v-2.059h-0.775v-0.746h0.775v-1.011l1.003-0.337v1.348h1.171
		v0.746H234.581z"/>
	<path fill="#FFFFFF" d="M239.815,62.612c-0.381,0.371-0.867,0.557-1.464,0.557c-0.639,0-1.145-0.186-1.515-0.557
		c-0.357-0.361-0.535-0.844-0.535-1.449c0-0.614,0.182-1.103,0.542-1.465c0.361-0.361,0.864-0.541,1.508-0.541
		c0.635,0,1.132,0.18,1.494,0.541c0.361,0.362,0.542,0.851,0.542,1.465C240.388,61.759,240.197,62.241,239.815,62.612
		 M239.099,60.211c-0.15-0.22-0.402-0.329-0.754-0.329c-0.351,0-0.603,0.109-0.754,0.329c-0.142,0.2-0.213,0.522-0.213,0.967
		c0,0.439,0.071,0.76,0.213,0.96c0.151,0.22,0.403,0.329,0.754,0.329c0.352,0,0.604-0.109,0.754-0.329
		c0.138-0.2,0.205-0.521,0.205-0.96C239.304,60.733,239.236,60.411,239.099,60.211"/>
	<path fill="#FFFFFF" d="M247.057,63.089l-0.396-1.171h-2.071l-0.389,1.171h-1.142l1.911-5.125h1.413l1.83,5.125H247.057z
		 M245.702,58.835h-0.132l-0.739,2.35h1.588L245.702,58.835z"/>
	<rect x="248.785" y="57.598" fill="#FFFFFF" width="1.04" height="5.491"/>
	<rect x="250.967" y="57.598" fill="#FFFFFF" width="1.04" height="5.491"/>
</g>
</svg>
